{
  "type": "service_account",
  "project_id": "bcpeaks1",
  "private_key_id": "cb9bf39681f479eb292c3254e69f925b517e48a2",
  "private_key": "-----BEGIN PRIVATE KEY-----\nMIIEvwIBADANBgkqhkiG9w0BAQEFAASCBKkwggSlAgEAAoIBAQDN+3xslNqF+bdG\nml5sPfE3Iu2yP5Q9vOjvGnCOIr7Zni1Je8B9AO3Anf2iTsrWLmFbtb0xhaXk3NCP\nVtw0etWjCHEtP4ODqgii1GEuUWOByFDM95z5BEGfWFK5Bdffp72F+kA/lptD9cqn\nZiGXVkrcfBxTieRQ0t6VBNV5uEz4N2pX08ci8DgCU3j0WvIqMdt7w8+62ErXCU7p\nWGaDKQ43UmstOW4NT4dvtRcaaYqzzGBobS89WqbrQuJyceO2VMNkNgQ+1LSJbFU3\n8l8HlnG3eanjdk9ns6zi00XsS3NnHr109oO5VRmGJ+A75YdHnPmru8LiEPJYDTlO\nA6JPbFlXAgMBAAECggEBAIi1KFdIU+AnZCRPv+tHERju7aMn31M6Vb6bZahwFwqH\nmLb0k0RjoWf9c6CNesG79pHPhMmhUgEbLLB1jaCnBbM2nybQyJBSAXlQS09aZRh1\nwmrGzD/ZO1RuYji6UBP4WCjbdli9tD7emqmPdyvh8b10AbjQA+BAk8mDc8tdLnht\n3czrQXcO1gj8fEfbgucHdNmjNRYSKTOvlTVH62Nh7zSo/0/lvcDxmcZPjSwg0lgo\n6i1wp/WN1IyqbCtA28m5JfYZGZguAGd2VgbvKLMoJq2263X1l6RFrHO2ZL1mFyn3\nP+Nizv/Oh35O8cRnXkD+kkJj5oPJUJSKisEBJqi7nYECgYEA8WOubNBCxyHN0sBV\n57qXF4Z4IxXb5tDGQ3RLlwc++JGnWyf4ryDkda+BwGA1PiXK7D9VFXtPAnqeiKwM\nUthGf51kUX8CSI9fTmVS65aGqmJaTAp9CtIupv354L1rEkzX+jHlYv5tDBfzUxQ7\n30a5RBf77RnTTVEbrlN9P+0gJh8CgYEA2nMsqRUKr5hThR/GQq/0oKNeI57Gb5Kq\nA5DAt6/RTX97M3hYcXoNlwxgPLcDq2Cw4L9rUJNBltFcNj1ZtMckud6mSbITWShj\nxYg+1cnDrcctD7SGHNVh5Lzznmp4G1KZYrj/mShYltevNPIGxjrSjSAqwmKV8zNT\ne7/VlTl2NckCgYEAgtB+akHCrp/HJvtMkrQvxXP+DyV9cmyZxVx0yngGzDZC98eF\noYK1zIE8U8DPmcppWfZIacfVXYaN+4shcpP6QJZPE0s9NY1dHOMUOM/uUs/SF3tn\noEGfPqhMjlqYd+Zk9RWtNiSje/ZOyysf9zQgmqJUyH1CYZge5C4ipk4fKgkCgYEA\nvTesRJ0MT4MzPQmD0vnUfFxly5bZLYWtrD7zH2i0dFtrHO8uNMTTBrZamdyw2f57\n14EW9IlI89lO9VB45oTkw/cetJEB/2Vj3pMgUlBdJaZz2rm0vT77d4VPxDVW6dvH\nLuMtyr1O1wHmKodF5OjIviNRxmRcnHcl5fgJiiNmyDkCgYByhzswRud1FS6pFr3B\niKmwWFF3p5APEUxdpX+2kSZ+dFGlJCsfTEAkkWrChq2cD8+vkIM92FFX9BuDSSuH\ni/ViYaJj+lE559AM92M7s438MdSr3TElqjIzxtPfQW1V1Ty501uHAd2FxPDNKqm1\nEn5u9Q4xyqbq7PYKygMLFKo+ww==\n-----END PRIVATE KEY-----\n",
  "client_email": "621272395296-compute@developer.gserviceaccount.com",
  "client_id": "102750890686810656349",
  "auth_uri": "https://accounts.google.com/o/oauth2/auth",
  "token_uri": "https://accounts.google.com/o/oauth2/token",
  "auth_provider_x509_cert_url": "https://www.googleapis.com/oauth2/v1/certs",
  "client_x509_cert_url": "https://www.googleapis.com/robot/v1/metadata/x509/621272395296-compute%40developer.gserviceaccount.com"
}
